{
  "table": "city",
  "columns": [
    {
      "name": "id_city",
      "type": "integer",
      "unique": true,
      "nullable": false,
      "primaryKey": true,
      "autoIncrement": true,
      "defaultValue": null
    },
    {
      "name": "id_state",
      "type": "integer",
      "unique": false,
      "nullable": false,
      "primaryKey": false,
      "autoIncrement": false,
      "defaultValue": null
    },
    {
      "name": "name",
      "type": "varchar",
      "length": 255,
      "unique": true,
      "nullable": true,
      "primaryKey": false,
      "autoIncrement": false,
      "defaultValue": null
    },
    {
      "name": "created_at",
      "type": "datetime",
      "defaultValue": ":currentdate"
    },
    {
      "name": "updated_at",
      "type": "datetime",
      "defaultValue": ":currentdate"
    }
  ],
  "seeds": [
    {
      "id_state": 1,
      "name": "malang"
    },
    {
      "id_state": 1,
      "name": "surabaya"
    }
  ],
  "interceptors": [
    {
      "class": "id.masoft.guipig.module.auth.core.AuthInterceptor",
      "parameters": {
        "ALLOWED_ROLES": "SUPERUSER,APP_ADMIN,GOV_SUPERUSER,GOV_STAFF,USER"
      }
    }
  ]
}